<svg width="16" height="16" viewBox="0 0 16 16" fill="none" xmlns="http://www.w3.org/2000/svg">
<path d="M3.83333 2.33337H3.14472L2.1665 2.59549V3.63059L2.83318 3.45192L2.83329 5.66671H1.99984V6.66671H4.6665V5.66671H3.83333V2.33337ZM6.6665 3.33337C6.6665 2.96518 6.96498 2.66671 7.33317 2.66671H13.3332C13.7014 2.66671 13.9998 2.96518 13.9998 3.33337C13.9998 3.70156 13.7014 4.00004 13.3332 4.00004H7.33317C6.96498 4.00004 6.6665 3.70156 6.6665 3.33337ZM6.6665 8.00004C6.6665 7.63185 6.96498 7.33337 7.33317 7.33337H13.3332C13.7014 7.33337 13.9998 7.63185 13.9998 8.00004C13.9998 8.36823 13.7014 8.66671 13.3332 8.66671H7.33317C6.96498 8.66671 6.6665 8.36823 6.6665 8.00004ZM6.6665 12.6667C6.6665 12.2985 6.96498 12 7.33317 12H13.3332C13.7014 12 13.9998 12.2985 13.9998 12.6667C13.9998 13.0349 13.7014 13.3334 13.3332 13.3334H7.33317C6.96498 13.3334 6.6665 13.0349 6.6665 12.6667ZM1.9165 10.4167C1.9165 9.63431 2.55076 9.00004 3.33317 9.00004C4.11558 9.00004 4.74984 9.63431 4.74984 10.4167C4.74984 10.7404 4.64106 11.0392 4.45815 11.2778L4.45498 11.282L3.54375 12.3334H4.6665V13.3334H1.99992L1.99956 12.5858L3.64764 10.69C3.71137 10.6168 3.74984 10.5214 3.74984 10.4167C3.74984 10.1866 3.56329 10 3.33317 10C3.11569 10 2.93699 10.1668 2.91815 10.3792L2.9099 10.5834H1.9165V10.4167Z" fill="#888CA0"/>
</svg>
