<svg width="16" height="16" viewBox="0 0 16 16" fill="none" xmlns="http://www.w3.org/2000/svg">
<path fill-rule="evenodd" clip-rule="evenodd" d="M7.89767 15.4173L15.0995 8.21537C15.6803 7.63463 16 6.86262 16 6.04145V1.70796C16 0.766538 15.2335 0 14.292 0L9.95854 0C9.13733 0 8.36535 0.319732 7.78461 0.900432L0.582751 8.10235C0.207007 8.47809 0 8.97751 0 9.51107C0 10.0419 0.207007 10.5413 0.582751 10.9171L5.08294 15.4173C5.45868 15.793 5.9581 16 6.49167 16C7.0225 16 7.52193 15.793 7.89767 15.4173ZM8.79474 1.91061L1.59291 9.1125C1.48548 9.21992 1.42858 9.35582 1.42858 9.51107C1.42858 9.66256 1.48474 9.79876 1.59291 9.90692L6.09309 14.4071C6.20052 14.5145 6.33641 14.5714 6.49167 14.5714C6.64316 14.5714 6.77935 14.5153 6.88751 14.4071L14.0894 7.20522C14.4022 6.89241 14.5714 6.48377 14.5714 6.04145V1.70796C14.5714 1.55551 14.4445 1.42857 14.292 1.42857L9.95854 1.42857C9.5162 1.42857 9.10755 1.59783 8.79474 1.91061Z" fill="#888CA0"/>
<path fill-rule="evenodd" clip-rule="evenodd" d="M10.8571 4.57143C10.5434 4.57143 10.2857 4.82913 10.2857 5.14286C10.2857 5.45658 10.5434 5.71429 10.8571 5.71429C11.1709 5.71429 11.4286 5.4566 11.4286 5.14286C11.4286 4.82913 11.1709 4.57143 10.8571 4.57143ZM9.14284 5.14286C9.14284 4.19795 9.91222 3.42857 10.8571 3.42857C11.802 3.42857 12.5714 4.19795 12.5714 5.14286C12.5714 6.0878 11.802 6.85714 10.8571 6.85714C9.91222 6.85714 9.14284 6.08777 9.14284 5.14286Z" fill="#888CA0"/>
</svg>
